{
    "page":1,
    "total_results":4,
    "total_pages":2,
    "results":[
        {
            "vote_count":2686,
            "id":335983,
            "video":false,
            "vote_average":6.5,
            "title":"Venom",
            "popularity":490.168,
            "poster_path":"/2uNW4WbgBXL25BAbXGLnLqX71Sw.jpg",
            "original_language":"en",
            "original_title":"Venom",
            "genre_ids":[
                878
            ],
            "backdrop_path":"/VuukZLgaCrho2Ar8Scl9HtV3yD.jpg",
            "adult":false,
            "overview":"Eddie Brock is a reporter—investigating people who want to go unnoticed. But after he makes a terrible discovery at the Life Foundation, he begins to transform into ‘Venom’.  The Foundation has discovered creatures called symbiotes, and believes they’re the key to the next step in human evolution. Unwittingly bonded with one, Eddie discovers he has incredible new abilities—and a voice in his head that’s telling him to embrace the darkness.",
            "release_date":"2018-10-03"
        },
        {
            "vote_count":1726,
            "id":338952,
            "video":false,
            "vote_average":7.1,
            "title":"Fantastic Beasts: The Crimes of Grindelwald",
            "popularity":285.185,
            "poster_path":"/uyJgTzAsp3Za2TaPiZt2yaKYRIR.jpg",
            "original_language":"en",
            "original_title":"Fantastic Beasts: The Crimes of Grindelwald",
            "genre_ids":[
                10751,
                14,
                12
            ],
            "backdrop_path":"/xgbeBCjmFpRYHDF7tQ7U98EREWp.jpg",
            "adult":false,
            "overview":"Gellert Grindelwald has escaped imprisonment and has begun gathering followers to his cause—elevating wizards above all non-magical beings. The only one capable of putting a stop to him is the wizard he once called his closest friend, Albus Dumbledore. However, Dumbledore will need to seek help from the wizard who had thwarted Grindelwald once before, his former student Newt Scamander, who agrees to help, unaware of the dangers that lie ahead. Lines are drawn as love and loyalty are tested, even among the truest friends and family, in an increasingly divided wizarding world.",
            "release_date":"2018-11-14"
        }
    ]
}
